id,Status,has_seen_report,report_project,report_is_useful,report_learned_something,report_made_me_curious,report_thoughts,slowbuild_identification,slowbuild_actionable,slowbuild_shouldfail,slowbuild_thoughts,failedtests_identification,failedtests_actionable,failedtests_shouldfail,failedtests_thoughts,latemerging_identification,latemerging_actionable,latemerging_shouldfail,latemerging_thoughts,brokenmaster_awareness_freq,brokenmaster_awareness_timetofix,brokenmaster_actionable,brokenmaster_thoughts,overall_novelty,overall_overview,overall_positive_effect,overall_would_integrate,overall_thoughts,demographics_education,demographics_education_other,demographics_position,demographics_position_other,demographics_domain,demographics_experience_programming,demographics_ci_theory,demographics_ci_practice,demographics_role
7,Completed Both,Yes,,Disagree,Disagree,Disagree,Not clear where the stats were derived from. Our prs can fail for more than one reason on github and some are not true failures (style warnings for example). We follow gitflow so we merge into develop more often than master and this is normal with gitflow. We don't necessarily want to push to master regularly. We're producing libraries rather than releasing to an environment so we're not doing continuous delivery (though we'd like to release more often). I think you'll find that Spring projects for example won't merge to master very often.,Agree,Neutral,Neutral,,Agree,Neutral,Neutral,,Neutral,Neutral,Disagree,,Neutral,Neutral,Neutral,Which branch does it mean? What is the name of the branch and how is it identified as the release branch?,Agree,Disagree,Disagree,Disagree,The assumptions built into the tool need to be much clearer. How are release branches identified and in what situations are tests considered skipped? I think we've skipped tests before merging way more than the report says. See other previous answers.,Self-studied,,Professional Developer,,business process management,High,High,High,developer and owner
8,Completed Both,Yes,,Disagree,Agree,Strongly Agree,Using the develop branch as reference is probably more meaningful for us. We are using gitflow as branching convention so develop become our main branch and master is only updated when a new release happens.,Strongly Agree,Neutral,Disagree,,Strongly Agree,Agree,Disagree,"All depends on the pipeline configuration. This is generally true, but in some cases we can have a pipeline building  a project A with skip tests in a step A to unblock down streams faster. In this case, the tests skipped by step A are executed by another step on the same pipeline (once the down streams have been unblocked). In this case it shouldn't fail.",Agree,Agree,Disagree,,Agree,Agree,Neutral,,No Answer,Agree,Agree,Agree,,Master,,Professional Developer,,,High,High,High,Develolper
9,Completed Only Specific,Yes,,Disagree,Disagree,Neutral,,No Answer,No Answer,No Answer,,No Answer,No Answer,No Answer,,No Answer,No Answer,No Answer,,No Answer,No Answer,No Answer,,No Answer,No Answer,No Answer,No Answer,,No Answer,,No Answer,,,No Answer,No Answer,No Answer,No Answer
10,Completed Both,Yes,,Agree,Agree,Neutral,,Neutral,Agree,Disagree,,Neutral,Disagree,Neutral,Not sure what it's reporting for our project or how it's getting the data,Neutral,Neutral,Disagree,Different teams may use different branching models; it probably needs to be configurable which branches are candidates for merging (which is what this test is testing) and which are simply one-off experiments left alone.,Agree,Disagree,Agree,,Neutral,Agree,Neutral,Agree,,Master,,Professional Developer,,academic,Moderate,Moderate,Moderate,No Answer
11,Completed Only General,No,,No Answer,No Answer,No Answer,,Agree,Agree,Disagree,Slow build is really problem but I think build should not failed only for this reason alone.,Agree,Neutral,Neutral,"It should be avoided but in some cases, like say, major fix is required for business use case, then may be, I will not mind skipping test case",Agree,Neutral,Neutral,,Agree,Agree,Agree,"I, as a release manager, this report is very useful for me.",Agree,Agree,Agree,Agree,These are useful reports but I want to know about overhead of generating these report.,Bachelor,,Professional Developer,,finance,High,High,High,developer
13,Completed Only General,No,,No Answer,No Answer,No Answer,,Strongly Agree,Neutral,Strongly Disagree,"Figuring out the cause of slow builds would be useful. If they're highly variable, like the above, it might indicate resource contention on the build machine or slow networks conditions. Conversely, if there's an upward trend or sudden change, it'd be useful to identify commits that introduced the change, or get a breakdown of which build steps took the most time.  Regarding high severity warnings failing the build: I'm assuming that this analysis is not part of the build itself, so not sure how this would work. IMO a build that's taken longer than some upper limit of time to execute should fail, but that's not the role of an analysis tool.",Strongly Agree,Strongly Agree,Strongly Disagree,How do you differentiate between 'ignored' and commented-out tests?   I'd be keen to see this tool detect tests that were subsequently commented out rather than properly disabled via the test runner.,Strongly Agree,Strongly Agree,Strongly Disagree,,Disagree,Agree,Agree,,No Answer,Agree,Agree,Agree,,Master,,Professional Developer,,logistics,High,High,High,developer
14,Completed Only General,No,,No Answer,No Answer,No Answer,,Strongly Agree,Disagree,Disagree,Slow build threshold should be configurable. Slow build failure condition should be configurable. The build timeout plugin for jenkins handles this well.,Agree,Agree,Strongly Disagree,"Software engineering is a human endeavor. A report like this is good, but it should never take control away from humans (by failing a build automatically.) There are many cases where failing tests are no longer relevant and *should* be removed. If a problem like this is reported by an automated tool and it is determined to be a real problem (by human oversight), then the correct response is for a human to address the human failure.",Neutral,Neutral,Strongly Disagree,,Strongly Agree,Strongly Agree,Disagree,,Disagree,Neutral,Neutral,Disagree,,Self-studied,,Other - Write In,Devops Engineer,automotive industry,High,High,High,Architect
15,Completed Only General,No,,No Answer,No Answer,No Answer,,Agree,Disagree,Strongly Disagree,Include time per test/class,Strongly Agree,Agree,Strongly Agree,"Tests should not be skipped, but fixed or ignored from the code itself",Strongly Agree,Strongly Agree,Agree,"Tests _could_ run on the ""merged"" branch resulting from master+feature, if that's possible. This way, you know exactly which tests don't pass anymore",Strongly Agree,Strongly Agree,Strongly Agree,,Strongly Disagree,Disagree,Strongly Agree,Agree,,Master,,Professional Developer,,Security (Web),High,High,Moderate,Developer
17,Partial,No,,No Answer,No Answer,No Answer,,No Answer,No Answer,No Answer,,No Answer,No Answer,No Answer,,No Answer,No Answer,No Answer,,No Answer,No Answer,No Answer,,No Answer,No Answer,No Answer,No Answer,,No Answer,,No Answer,,,No Answer,No Answer,No Answer,No Answer
18,Partial,No,,No Answer,No Answer,No Answer,,No Answer,No Answer,No Answer,,No Answer,No Answer,No Answer,,No Answer,No Answer,No Answer,,No Answer,No Answer,No Answer,,No Answer,No Answer,No Answer,No Answer,,No Answer,,No Answer,,,No Answer,No Answer,No Answer,No Answer
19,Partial,No,,No Answer,No Answer,No Answer,,No Answer,No Answer,No Answer,,No Answer,No Answer,No Answer,,No Answer,No Answer,No Answer,,No Answer,No Answer,No Answer,,No Answer,No Answer,No Answer,No Answer,,No Answer,,No Answer,,,No Answer,No Answer,No Answer,No Answer
20,Completed Only General,No,,No Answer,No Answer,No Answer,,Strongly Agree,Neutral,Agree,,Agree,Disagree,Strongly Agree,,Strongly Agree,Neutral,Agree,,Agree,Agree,Agree,,Agree,Agree,Agree,Neutral,,Bachelor,,Professional Developer,,SaaS,Moderate,High,High,DevOps/SRE
22,Completed Only General,No,,No Answer,No Answer,No Answer,,Neutral,Disagree,Strongly Disagree,Bar charts of averages + an average line are REALLY bad visualizations for this type of data.,Agree,Neutral,Strongly Disagree,,Agree,Disagree,Strongly Disagree,"Rebasing is much prefered to merging in many cases, this doesn't seem to cover this pattern.  Also proper tooling would just regularly test if merges can still happen and even run builds on the merges, so this is not necessarily an anti-pattern.",Agree,Agree,Neutral,"If you have a separate branch for a release version, you're not running continuous integration, you are just building code quite often.  Time to fix/recover is more important than number of breakages, because focussing on bringing that number down probably also reduces number of  builds in general.",Disagree,Neutral,Disagree,Disagree,The reports so far were only about builds and unit tests.,No Answer,,Professional Developer,,"distributed systems, devops",Moderate,Moderate,High,"admin, supporter, developer"
23,Partial,No,,No Answer,No Answer,No Answer,,No Answer,No Answer,No Answer,,No Answer,No Answer,No Answer,,No Answer,No Answer,No Answer,,No Answer,No Answer,No Answer,,No Answer,No Answer,No Answer,No Answer,,No Answer,,No Answer,,,No Answer,No Answer,No Answer,No Answer
26,Completed Both,Yes,,Agree,Neutral,Strongly Agree,,Strongly Agree,Strongly Agree,Strongly Disagree,A slow build should be weighed against the weight of the artifacts. A large increase in artifact/deliverables may be considered less severe than a long build with less of a jump in deliverable (i.e. Such a scenario would indicate something isn't tuned as well as it was).,Strongly Agree,Strongly Agree,Strongly Agree,,Strongly Agree,Strongly Agree,Strongly Agree,,Strongly Agree,Strongly Agree,Strongly Agree,,Agree,Agree,Strongly Agree,Strongly Agree,,Master,,Professional Developer,,Financial Sector (HFT),High,High,High,Lead Developer
27,Completed Only General,No,,No Answer,No Answer,No Answer,,Agree,Disagree,No Answer,"Often new features of testing can decrease the build speed. You need to be able to say ""we've changed the build process, you can't compare before/after""",Agree,No Answer,Strongly Disagree,"Tests I've seen ignored are almost exclusively due to flakey tests, which are ignored until they can be fixed",Agree,Agree,Agree,Would prefer to have master merged into featureX to bring forward conflicts.   I'd rather be warned about parallel feature branches that are long running. ,Agree,Agree,Strongly Disagree,"Your quiz format is weird. It shows a picture of X, then asks ""did we showed you a picture of X; agree/disagree"". You haven't gotten any feedback on which customer have this problem, and where in their workflow they'd benefit from a report like this, and why they'd want to look at that graph - what's the trigger?",Disagree,Disagree,Strongly Disagree,Disagree,"You have a solution in need of a problem. Find out who needs to improve software delivery practices (eg. Build engineers, agile coaches, consultants, delivery leads), and how they do their job, and where they would need this information.   These reports are NOT appropriate for every developer",Bachelor,,Professional Developer,,"Banking, tech, media",High,High,High,"Dev, Ops, QA, tech leadership, build engineering,"
30,Completed Only General,No,,No Answer,No Answer,No Answer,,Strongly Agree,Strongly Agree,Strongly Agree,,Strongly Agree,Neutral,Strongly Agree,,Strongly Agree,Strongly Agree,Neutral,,Strongly Agree,Strongly Agree,Neutral,,Agree,Neutral,Strongly Agree,Strongly Agree,,Master,,Professional Developer,,,High,High,High,No Answer
31,Partial,No,,No Answer,No Answer,No Answer,,Agree,Disagree,Strongly Disagree,,No Answer,No Answer,No Answer,,No Answer,No Answer,No Answer,,No Answer,No Answer,No Answer,,No Answer,No Answer,No Answer,No Answer,,No Answer,,No Answer,,,No Answer,No Answer,No Answer,No Answer
33,Completed Only General,No,,No Answer,No Answer,No Answer,,Agree,Neutral,Strongly Disagree,We have a time out for our builds. Having a slow build does not mean it should be failed additionally to that already preexisting timeout.,Agree,Disagree,Strongly Agree,,Agree,Agree,Strongly Disagree,,Strongly Agree,Disagree,Agree,,Disagree,Agree,Strongly Agree,Agree,,Bachelor,,Other - Write In,DevOps engineer ,Human resources,Moderate,High,High,DevOps
34,Completed Only General,No,,No Answer,No Answer,No Answer,,Strongly Disagree,Neutral,Disagree,Be good to see which steps of the build are slower instead of just entire build. ex:- test execution times are increasing over a period of time,Agree,Agree,Disagree,,Agree,Agree,Neutral,,Agree,Agree,Agree,,Agree,Agree,Agree,Neutral,,Bachelor,,Professional Developer,,Finance,High,Moderate,Moderate,Developer
35,Completed Only General,No,,No Answer,No Answer,No Answer,,Agree,Agree,Disagree,,Agree,Neutral,Disagree,,Strongly Agree,Agree,Disagree,,Agree,Agree,Neutral,,Neutral,Agree,Agree,Agree,CI reports look good and definitely highlight issues that should be addressed.  They don't tell the whole story but would increase awareness and visibility of the problems.,Master,,Other - Write In,Infrastructure/DevOps Engineer,Autoinsurance,Moderate,High,High,Developer/DevOps Engineer
36,Partial,No,,No Answer,No Answer,No Answer,,No Answer,No Answer,No Answer,,No Answer,No Answer,No Answer,,No Answer,No Answer,No Answer,,No Answer,No Answer,No Answer,,No Answer,No Answer,No Answer,No Answer,,No Answer,,No Answer,,,No Answer,No Answer,No Answer,No Answer
37,Partial,Yes,,No Answer,No Answer,No Answer,,No Answer,No Answer,No Answer,,No Answer,No Answer,No Answer,,No Answer,No Answer,No Answer,,No Answer,No Answer,No Answer,,No Answer,No Answer,No Answer,No Answer,,No Answer,,No Answer,,,No Answer,No Answer,No Answer,No Answer
38,Partial,No,,No Answer,No Answer,No Answer,,Agree,Disagree,Neutral,"One big problem with slow build detection is legitimate increases to builds, such as adding a whole new stage to the build which is expected to take longer. This would cause problems if you were to fail a build due to this and I cannot think of any elegant ways around this except disabling the check, which means it is only useful after the build times have stabilised.  Maybe if it also took into account if the build pipeline it's self had changed it could relax the rules? But this leads to other problems.",Agree,Neutral,Disagree,There are ligitimate reasons to remove a failing test such as the feature no longer exists or was heavily changed. Can your system detect these but forgot to delete the test before pushing? How would you get these changes merged in if this you auto fail on them despite them being approved changes?  How would this detect people removing tests locally when they detect a test is now failing.  Really this need some understanding of the code and is hard to block all builds when this happens.,Agree,Neutral,Strongly Disagree,"If you fail the build work can never be merged. This would discourage people from commiting eairly rather than fixing any problems. I would consider this check an anti pattern as it goes against encouraging people to commit and push often, even if they don't merge regularly.",Agree,Neutral,Neutral,,No Answer,No Answer,No Answer,No Answer,,No Answer,,No Answer,,,No Answer,No Answer,No Answer,No Answer
39,Completed Only General,No,,No Answer,No Answer,No Answer,,Agree,Agree,Strongly Agree,,Agree,Neutral,Disagree,,Agree,Agree,Agree,,Strongly Agree,Agree,Agree,,Agree,Agree,Agree,Strongly Agree,,Master,,Professional Developer,,Services,Moderate,Moderate,Moderate,Devops
40,Partial,No,,No Answer,No Answer,No Answer,,No Answer,No Answer,No Answer,,No Answer,No Answer,No Answer,,No Answer,No Answer,No Answer,,No Answer,No Answer,No Answer,,No Answer,No Answer,No Answer,No Answer,,No Answer,,No Answer,,,No Answer,No Answer,No Answer,No Answer
41,Completed Only General,No,,No Answer,No Answer,No Answer,,Agree,Disagree,Strongly Agree,"3 minutes is a good target for a ci build (lint source code, run unit tests, generate artifacts, generate documentation, etc.) for a single project",Neutral,Disagree,Strongly Agree,,Strongly Agree,Agree,Disagree,,Agree,Disagree,Disagree,"Nobody intentionally breaks master. The solution to this problem is to use pull requests, with a dry-run CI build beforehand.",Disagree,Neutral,Disagree,Neutral,This doesn't include anything about code reviews. It also doesn't include any dependency analysis. You should fail the build (or at least warn) when deprecated software is used.,Bachelor,,Professional Developer,,cloud,High,High,High,developer
42,Partial,No,,No Answer,No Answer,No Answer,,No Answer,No Answer,No Answer,,No Answer,No Answer,No Answer,,No Answer,No Answer,No Answer,,No Answer,No Answer,No Answer,,No Answer,No Answer,No Answer,No Answer,,No Answer,,No Answer,,,No Answer,No Answer,No Answer,No Answer
44,Completed Only General,No,,No Answer,No Answer,No Answer,,Agree,Strongly Agree,Strongly Disagree,,Strongly Agree,Strongly Agree,Strongly Agree,,Disagree,Disagree,Strongly Disagree,,Neutral,Neutral,Neutral,,Disagree,Neutral,Disagree,Strongly Disagree,,Self-studied,,Other - Write In,Site Reliability Engineer ,Advertising,High,High,High,Site Reliability Engineer
46,Partial,No,,No Answer,No Answer,No Answer,,No Answer,No Answer,No Answer,,No Answer,No Answer,No Answer,,No Answer,No Answer,No Answer,,No Answer,No Answer,No Answer,,No Answer,No Answer,No Answer,No Answer,,No Answer,,No Answer,,,No Answer,No Answer,No Answer,No Answer
47,Partial,No,,No Answer,No Answer,No Answer,,No Answer,No Answer,No Answer,,No Answer,No Answer,No Answer,,No Answer,No Answer,No Answer,,No Answer,No Answer,No Answer,,No Answer,No Answer,No Answer,No Answer,,No Answer,,No Answer,,,No Answer,No Answer,No Answer,No Answer
48,Partial,No,,No Answer,No Answer,No Answer,,No Answer,No Answer,No Answer,,No Answer,No Answer,No Answer,,No Answer,No Answer,No Answer,,No Answer,No Answer,No Answer,,No Answer,No Answer,No Answer,No Answer,,No Answer,,No Answer,,,No Answer,No Answer,No Answer,No Answer
49,Partial,No,,No Answer,No Answer,No Answer,,No Answer,No Answer,No Answer,,No Answer,No Answer,No Answer,,No Answer,No Answer,No Answer,,No Answer,No Answer,No Answer,,No Answer,No Answer,No Answer,No Answer,,No Answer,,No Answer,,,No Answer,No Answer,No Answer,No Answer
51,Partial,Yes,,No Answer,No Answer,No Answer,,No Answer,No Answer,No Answer,,No Answer,No Answer,No Answer,,No Answer,No Answer,No Answer,,No Answer,No Answer,No Answer,,No Answer,No Answer,No Answer,No Answer,,No Answer,,No Answer,,,No Answer,No Answer,No Answer,No Answer
53,Partial,No,,No Answer,No Answer,No Answer,,Agree,Disagree,Disagree,,No Answer,No Answer,No Answer,,No Answer,No Answer,No Answer,,No Answer,No Answer,No Answer,,No Answer,No Answer,No Answer,No Answer,,No Answer,,No Answer,,,No Answer,No Answer,No Answer,No Answer
54,Partial,No,,No Answer,No Answer,No Answer,,No Answer,No Answer,No Answer,,No Answer,No Answer,No Answer,,No Answer,No Answer,No Answer,,No Answer,No Answer,No Answer,,No Answer,No Answer,No Answer,No Answer,,No Answer,,No Answer,,,No Answer,No Answer,No Answer,No Answer
56,Completed Only General,No,,No Answer,No Answer,No Answer,,Strongly Agree,Agree,Strongly Agree,,Neutral,Agree,Strongly Agree,,Agree,Strongly Agree,Neutral,,Agree,Strongly Agree,Neutral,,Agree,Agree,Agree,Agree,,Apprentice,,Professional Developer,,e-commerce,High,High,Moderate,development
58,Completed Only General,No,,No Answer,No Answer,No Answer,,Disagree,Strongly Agree,Strongly Agree,,Agree,Agree,Strongly Agree,,Agree,Disagree,Strongly Agree,,Agree,Strongly Agree,Agree,,Neutral,Neutral,Agree,Neutral,,Self-studied,,Professional Developer,,Business / Financial,Moderate,High,High,platform
59,Partial,No,,No Answer,No Answer,No Answer,,No Answer,No Answer,No Answer,,No Answer,No Answer,No Answer,,No Answer,No Answer,No Answer,,No Answer,No Answer,No Answer,,No Answer,No Answer,No Answer,No Answer,,No Answer,,No Answer,,,No Answer,No Answer,No Answer,No Answer
60,Completed Only Specific,Yes,,Strongly Agree,Neutral,Strongly Disagree,,Strongly Agree,Strongly Agree,Strongly Agree,,No Answer,No Answer,No Answer,,No Answer,No Answer,No Answer,,No Answer,No Answer,No Answer,,No Answer,No Answer,No Answer,No Answer,,No Answer,,No Answer,,,No Answer,No Answer,No Answer,No Answer
62,Partial,No,,No Answer,No Answer,No Answer,,Agree,Agree,Disagree,,No Answer,No Answer,No Answer,,No Answer,No Answer,No Answer,,No Answer,No Answer,No Answer,,No Answer,No Answer,No Answer,No Answer,,No Answer,,No Answer,,,No Answer,No Answer,No Answer,No Answer
63,Completed Only General,No,,No Answer,No Answer,No Answer,,Strongly Agree,Neutral,Disagree,"I believe the difference in a build succeeding or failing should not be impacted by the duration of the build. To me, a build passing means the software is usable. You cannot gain information about the usability of a build based on its duration. However, it is true that slow builds increase developer wait times and add overhead, so I do agree that slow builds should produce a warning as shown.",Strongly Agree,Strongly Agree,Strongly Agree,"Does the report account for tests that were removed due to changing specifications? Sometimes tests can be removed for legitimate reasons. As long as this is accounted for, this summary would help identify skipped failed-tests.",Strongly Agree,Strongly Agree,Disagree,,Strongly Agree,Strongly Agree,Agree,"I know how to improve the trend of this summary in the future: don't push broken builds on the release branch.  However, it may be less clear how not to push broken builds on the release branch. There are many techniques, and some of those can be anti-patterns themselves.",Agree,Agree,Strongly Agree,Strongly Agree,,Apprentice,,Professional Developer,,education,High,Moderate,Moderate,sole project maintainer
65,Partial,No,,No Answer,No Answer,No Answer,,No Answer,No Answer,No Answer,,No Answer,No Answer,No Answer,,No Answer,No Answer,No Answer,,No Answer,No Answer,No Answer,,No Answer,No Answer,No Answer,No Answer,,No Answer,,No Answer,,,No Answer,No Answer,No Answer,No Answer
66,Completed Only General,No,,No Answer,No Answer,No Answer,,Strongly Agree,Strongly Agree,Strongly Disagree,,Strongly Agree,Strongly Agree,Agree,"In the given example report, while the build number is useful, the commit & author would also be helpful.",Strongly Agree,Strongly Agree,Disagree,,Strongly Agree,Neutral,Strongly Agree,,Agree,Agree,Agree,Agree,,Bachelor,,Professional Developer,,e-commerce,High,High,High,developer
67,Partial,Yes,,No Answer,No Answer,No Answer,,No Answer,No Answer,No Answer,,No Answer,No Answer,No Answer,,No Answer,No Answer,No Answer,,No Answer,No Answer,No Answer,,No Answer,No Answer,No Answer,No Answer,,No Answer,,No Answer,,,No Answer,No Answer,No Answer,No Answer
69,Partial,No,,No Answer,No Answer,No Answer,,No Answer,No Answer,No Answer,,No Answer,No Answer,No Answer,,No Answer,No Answer,No Answer,,No Answer,No Answer,No Answer,,No Answer,No Answer,No Answer,No Answer,,No Answer,,No Answer,,,No Answer,No Answer,No Answer,No Answer
70,Completed Only General,No,,No Answer,No Answer,No Answer,,Strongly Agree,Agree,Neutral,Build failure should be optional.,Strongly Agree,Agree,Agree,,Neutral,Neutral,Disagree,,Agree,Agree,Agree,I can see this being useful for justifying time spent on fixing/improving pipelines to managers/product owners.,Agree,Agree,Agree,Agree,,Self-studied,,Professional Developer,,Financial,High,High,High,Development engineer
72,Completed Both,Yes,,Agree,Disagree,Agree,"Statistics like ""Skip failed tests"" and ""Late merging"" are useful for us or for any project.",Neutral,Neutral,Neutral,"not much useful for us, but this might be useful for other projects",Agree,Agree,Neutral,,Agree,Agree,Disagree,,Agree,Neutral,Neutral,,Neutral,Strongly Agree,Strongly Agree,Neutral,,Bachelor,,Professional Developer,,financial,High,High,High,"developer, tester"
73,Partial,Yes,,No Answer,No Answer,No Answer,,No Answer,No Answer,No Answer,,No Answer,No Answer,No Answer,,No Answer,No Answer,No Answer,,No Answer,No Answer,No Answer,,No Answer,No Answer,No Answer,No Answer,,No Answer,,No Answer,,,No Answer,No Answer,No Answer,No Answer
74,Partial,No,,No Answer,No Answer,No Answer,,Agree,Agree,Neutral,,No Answer,No Answer,No Answer,,No Answer,No Answer,No Answer,,No Answer,No Answer,No Answer,,No Answer,No Answer,No Answer,No Answer,,No Answer,,No Answer,,,No Answer,No Answer,No Answer,No Answer
77,Partial,Yes,,No Answer,No Answer,No Answer,,No Answer,No Answer,No Answer,,No Answer,No Answer,No Answer,,No Answer,No Answer,No Answer,,No Answer,No Answer,No Answer,,No Answer,No Answer,No Answer,No Answer,,No Answer,,No Answer,,,No Answer,No Answer,No Answer,No Answer
78,Completed Both,Yes,,Neutral,Disagree,Strongly Disagree,"The time portion does not provide interesting information in the report, though it might be useful to get automatic reports of an upwards trend (again, not necessarily due to failures, GeoTools is ever growing, we add modules, we add tests every time bugs get fixed, so overall the trend should be upward).  The ""broken release branch"" part is unclear, did you also check pull requests? We get many from outsiders and we have various devs using PRs to test if the build is working or not due to slow computers (GeoTools is not ""rich"" and there is a significant portion of volunteer work).  Late merging on a volunteer based project is... well... not so informative. Pull requests are reviewed and merged based on volunteer time, so it can be all over the place and that is well... normal. Also, the report seems to focus on feature branches on the project own repo, which we don't use much (often just for collaboration during code sprints), the results would be more interesting if it considered pull requests coming from other repos (which is the norm even for core developers).",Disagree,Neutral,Disagree,,Agree,Agree,Disagree,,Disagree,Neutral,Disagree,,Disagree,Disagree,Disagree,,Agree,Neutral,Disagree,Neutral,,Master,,Professional Developer,,Geographic Information Systems,High,Moderate,Moderate,Developer
79,Completed Both,Yes,,Strongly Agree,Neutral,Agree,"You reported for the ""east"" branch:  ""In your project, branches are typically synced with master every 9.42 weeks. However, branch east has last synced with master on 2018-02-22 14:17:04, and branch master has commits that are 11.99 weeks newer than that.""  Since master wasn't updated since 07/09/2015 I'm not sure where these times were calculated from.  % git merge-base origin/east origin/master                          05840624ab3d1d1dca14d1ccfebabcb61c42ec27  % git show --pretty=medium 05840624ab3d1d1dca14d1ccfebabcb61c42ec27  commit 05840624ab3d1d1dca14d1ccfebabcb61c42ec27 (tag: v5.1.4, josh/develop) Merge: 816dff67c5 8a9ed81b33 Author: Sébastien Besson < seb.besson@gmail.com> Date:   Thu Sep 3 21:04:45 2015 +0100  However, do note that the develop branch was regularly merged into the east branch following point releases to ensure it did not get out of sync by too much.  % git merge-base origin/east origin/develop 3122e009f1a2f09746b2f73fa2048e157ed0974f  % git show --pretty=medium 3122e009f1a2f09746b2f73fa2048e157ed0974f commit 3122e009f1a2f09746b2f73fa2048e157ed0974f (tag: v5.9.1) Merge: 1256948302 237f1fa4de Author: David Gault < d.gault@dundee.ac.uk> Date:   Fri Aug 10 15:04:27 2018 +0100  So it's only 8 days out of date.  Note that develop is the default branch for this repository on github, not master.  The outdatedness of the master branch does indicate that it has not been updated for point releases since 2015, which is useful to know.  (I'm not on this team any more since the end of June, but I'll mention it on the list). ",Neutral,Neutral,Agree,"Looking at the graph, the median is about 600s, and it's returned to this median level as recently as the 23rd of June.  Without seeing a larger time period, I would be cautious to state with certainty that the last bar is a genuine increase in build time or a statistical outlier.  This might be due to code changes (more code, more test cases, longer test duration etc.).  But it might also be due to network issues, maven central being slow, contention between virtual machines or other compounding factors.  While I do think that the trend is interesting, and worth investigation, I'm unsure it's necessarily relevant.  I do think that breaking down the time into finer granularity measurements: setup time, artifact download time, build time, test time, etc. would provide more insight into the phase of the build which was responsible for the variance.",Agree,Agree,Strongly Agree,"I don't see these in the bioformats git repository, so I assume these are examples from another project?",Strongly Agree,Agree,Disagree,"There may be good reasons for a branch taking longer than usual to merge.  For example, maybe it is being held back for a later milestone, maybe it needs more work, or maybe it's bigger and more complex than a ""typical"" branch.  I don't consider the ""lateness"" as a failure criterion in and of itself, though it may be a warning flag to investigate further.",Strongly Agree,Strongly Agree,Agree,I would question why the project permits failing code to be merged into the master branch in the first place.  It should be tested on a separate branch and the test success or failure should be used as a criterion for merging or not.,Agree,Agree,Agree,No Answer,"Since I'm no longer on the team, I can't answer the last question.",Self-studied,,Professional Developer,,Scientific,High,High,High,"All of the above, primarily developer but I also maintain all the CI pipelines"
80,Completed Only General,No,,No Answer,No Answer,No Answer,,Strongly Agree,Neutral,Disagree,,Agree,Disagree,Strongly Agree,,Disagree,Neutral,Disagree,,Strongly Agree,Strongly Agree,Neutral,,Agree,Disagree,Strongly Agree,Agree,,Master,,No Answer,,telecomms,Moderate,High,Moderate,No Answer
81,Partial,No,,No Answer,No Answer,No Answer,,No Answer,No Answer,No Answer,,No Answer,No Answer,No Answer,,No Answer,No Answer,No Answer,,No Answer,No Answer,No Answer,,No Answer,No Answer,No Answer,No Answer,,No Answer,,No Answer,,,No Answer,No Answer,No Answer,No Answer
82,Completed Only General,No,,No Answer,No Answer,No Answer,,Agree,Neutral,Disagree,,Strongly Agree,Agree,Agree,,Agree,Agree,Strongly Disagree,,Strongly Agree,Strongly Agree,Strongly Agree,,Disagree,Agree,Strongly Agree,Agree,,Bachelor,,Professional Developer,,Consumer fiance,Moderate,High,High,Developer
83,Completed Only General,No,,No Answer,No Answer,No Answer,,Agree,No Answer,Strongly Disagree,Build speeds are a very noisy signal and can depend on a lot of things other than the code being built.,Strongly Agree,Strongly Agree,Strongly Agree,,Agree,Agree,Strongly Disagree,,Agree,Agree,Disagree,,Disagree,Neutral,Neutral,Neutral,I don't care about most of these signals and I don't get why you apparently do.,Bachelor,,Industrial Researcher,,platform as a service,High,High,High,I run a CI service
84,Completed Only General,No,,No Answer,No Answer,No Answer,,Strongly Agree,Agree,Strongly Disagree,"If there is a planned increase of build time from a build to another, should be some way to tell that to your tool.",Strongly Agree,Neutral,Strongly Disagree,,Strongly Agree,Agree,Strongly Disagree,,Strongly Agree,Strongly Agree,Agree,,Strongly Agree,Agree,Strongly Agree,Strongly Agree,,Bachelor,,Professional Developer,,"Financial, web",High,Moderate,High,Developer
86,Partial,No,,No Answer,No Answer,No Answer,,No Answer,No Answer,No Answer,,No Answer,No Answer,No Answer,,No Answer,No Answer,No Answer,,No Answer,No Answer,No Answer,,No Answer,No Answer,No Answer,No Answer,,No Answer,,No Answer,,,No Answer,No Answer,No Answer,No Answer
88,Completed Only General,No,,No Answer,No Answer,No Answer,,Strongly Disagree,Strongly Disagree,Strongly Disagree,https://groups.google.com/d/msg/checkstyle/lUtsdBZ6w14/0dIKF_VyCgAJ,Strongly Disagree,Strongly Disagree,Strongly Disagree,"skips of tests are usually configurable from code, so code analysis is much better. detection or skipped test should fail build.",Agree,Agree,Agree,"unsynced branches is a problem, in general I agree, but your implementation doe snot work well , see my comment at https://groups.google.com/d/msg/checkstyle/lUtsdBZ6w14/0dIKF_VyCgAJ.  ",Neutral,Neutral,Neutral,"team should use PullRequests model and verification on PullRequests level, rather than on master. Failure on release branch should be more like exception.",Neutral,Disagree,Disagree,Strongly Disagree,,Master,,Professional Developer,,financial,High,High,High,I play in all roles
89,Completed Both,Yes,Google Closure Compiler,Agree,Strongly Agree,Neutral,,Strongly Agree,Neutral,Disagree,,Neutral,Neutral,Disagree,,Neutral,Neutral,Neutral,Google Closure Compiler uses a different branching strategy. Very few local branches are maintained.,Strongly Agree,Agree,Agree,,Neutral,Neutral,Neutral,Disagree,,Bachelor,,Professional Developer,,Financial,High,High,High,No Answer
90,Partial,No,,No Answer,No Answer,No Answer,,Neutral,Neutral,Disagree,,No Answer,No Answer,No Answer,,No Answer,No Answer,No Answer,,No Answer,No Answer,No Answer,,No Answer,No Answer,No Answer,No Answer,,No Answer,,No Answer,,,No Answer,No Answer,No Answer,No Answer
91,Partial,No,,No Answer,No Answer,No Answer,,No Answer,No Answer,No Answer,,No Answer,No Answer,No Answer,,No Answer,No Answer,No Answer,,No Answer,No Answer,No Answer,,No Answer,No Answer,No Answer,No Answer,,No Answer,,No Answer,,,No Answer,No Answer,No Answer,No Answer
92,Partial,No,,No Answer,No Answer,No Answer,,No Answer,No Answer,No Answer,,No Answer,No Answer,No Answer,,No Answer,No Answer,No Answer,,No Answer,No Answer,No Answer,,No Answer,No Answer,No Answer,No Answer,,No Answer,,No Answer,,,No Answer,No Answer,No Answer,No Answer
93,Completed Only General,No,,No Answer,No Answer,No Answer,,Disagree,Strongly Disagree,Neutral,"the causes that would trigger this issue are hidden from the user. for example, which branch has the slowness increase over time can be immensely meaningful, but more importantly the issues can be ephemeral and to some extent unrelated to any bad practices on the part of engineers. slow builds can just as easily (in my experience more often are ) a symptom of overconstained resources for a development team. if the team is going great and generating a lot of work, this can end up being a perverted incentive, encouraging them to slow down, not increase, dev velocity",Agree,Strongly Agree,Neutral,"if the skipped tests are changing frequently, id be very interested in that setup. however skip tests have been a normal part of the tradeoffs of testing vs labor available. in terms of actuallu reducing risks to the project, skipped tests havent been very meaningful except in egregious/pathological cases",Agree,Agree,Strongly Disagree,"late merging isnt a technology problem as often as its a people problem.  it often identifies communication issues within or between teams. being aware of it as a manager or developer is key, but its not actionable in a build context",Agree,Agree,Agree,,Neutral,Disagree,Neutral,Disagree,,Master,,Other - Write In,CTO and developer,industrial & SaaS- internet services,High,High,High,"all of the above, primarily leading teams now"
94,Completed Only General,No,,No Answer,No Answer,No Answer,,Agree,Agree,Strongly Disagree,The slow build problem is compounded by cloud CI tools which have an underlying variance in build times due to various limitations in sharing disk/memory/cpu.,Agree,Strongly Agree,Strongly Disagree,My team has previously built tooling to auto ignore flaky tests :). Sometimes its a necessity. Integration tests with external depenendencies that cannot be mocked may also need ignoring if issues with those dependencies occur. Skipping these should not fail a build (perhaps having configurable fail on ignore would be nice). ,Agree,Strongly Agree,Disagree,Rebasing should happen often. Kinda neutral on this one if it should even be a warning...,Strongly Agree,Disagree,Agree,"Often a release branch can break due to external dependencies e.g failure due to upload and deploy a new version of the app due to 3rd party issues. Often integration tests will run during a release, which are often prone to failure.",Neutral,Agree,Agree,Neutral,"We have teams dedicated to CI pipelines that will build tooling and further automation around existing CI products. Some of that work captures metrics similar to what you have proposed, which is useful to guide initiatives to get dev teams to improve their CI practices and improve devspeed, whilat reducing the time it takes code changes landing on the master branch to ship to production.",Bachelor,,Professional Developer,,"Productivity, collaboration, software development and process tooling, CI tools.",High,High,High,"I develop a CI product, and we own our own CI pipelines."
95,Completed Both,Yes,,Neutral,Agree,Neutral,The report is very verbose. I prefer an infographic style report for quick analysis,Agree,Neutral,Agree,,Agree,Neutral,Disagree,,Neutral,Disagree,Disagree,,Agree,Disagree,Neutral,,Disagree,Neutral,Neutral,Neutral,,Bachelor,,Other - Write In,Product Manager,Test automation,High,High,High,Product Manager
96,Partial,Yes,,No Answer,No Answer,No Answer,,No Answer,No Answer,No Answer,,No Answer,No Answer,No Answer,,No Answer,No Answer,No Answer,,No Answer,No Answer,No Answer,,No Answer,No Answer,No Answer,No Answer,,No Answer,,No Answer,,,No Answer,No Answer,No Answer,No Answer
97,Partial,No,,No Answer,No Answer,No Answer,,No Answer,No Answer,No Answer,,No Answer,No Answer,No Answer,,No Answer,No Answer,No Answer,,No Answer,No Answer,No Answer,,No Answer,No Answer,No Answer,No Answer,,No Answer,,No Answer,,,No Answer,No Answer,No Answer,No Answer
98,Partial,Yes,,No Answer,No Answer,No Answer,,No Answer,No Answer,No Answer,,No Answer,No Answer,No Answer,,No Answer,No Answer,No Answer,,No Answer,No Answer,No Answer,,No Answer,No Answer,No Answer,No Answer,,No Answer,,No Answer,,,No Answer,No Answer,No Answer,No Answer
100,Completed Only General,No,,No Answer,No Answer,No Answer,,Agree,Neutral,Disagree,,Agree,Strongly Agree,Agree,,Strongly Agree,Neutral,Disagree,,Strongly Agree,Agree,Disagree,,Agree,Agree,Neutral,Neutral,,Master,,Other - Write In,Development Manager,airline /airport systems,Moderate,High,Moderate,Dev Team Mgr
103,Completed Only General,No,,No Answer,No Answer,No Answer,,Agree,Neutral,Strongly Agree,"Over time, builds take longer, therefore the definition of a slow build should be noted as a percentage - i.e. ""if a build takes 10% longer to complete than the previous build, fail the job"".",Agree,Agree,Strongly Agree,,Strongly Agree,Agree,Agree,,Agree,Agree,Neutral,,Neutral,Agree,Strongly Agree,Strongly Agree,,Self-studied,,Professional Developer,,Public sector,High,High,High,Developer
106,Completed Both,Yes,sonarqube,Agree,Disagree,Disagree,,Agree,Disagree,Disagree,,Agree,Agree,Disagree,,Agree,Agree,Disagree,,Agree,Agree,Disagree,"In real-life we observe false-positives in the build infra as well (in addition to, much more infrequent bad commits), whose frequency would be nice to track using such a tool.",Neutral,Disagree,Agree,Agree,The full overview of CI practices would require additional information such as code coverage and cannot be captured by only looking at the sources of info that this report relies on.,Master,,Professional Developer,,code analysis,High,High,High,product owner
107,Completed Only General,No,,No Answer,No Answer,No Answer,,Strongly Agree,Neutral,Disagree,"Rather than a ""single slow build == fail"" model, perhaps a ""last couple builds were slow"" or ""build times are trending upward"" causing a fail.  I've seen slow builds that were because of an intermittent network issue, or a sysadmin doing maintenance work, so having that cause a failure would be noisy.",Agree,Agree,Strongly Agree,,Neutral,Neutral,Disagree,"I wouldn't want long-lived branches to trigger failures, but I do *really* like the insight this provides.  I wonder if this is more ""summary email report"" information than ""dashboard"" information.",Agree,Strongly Agree,Agree,,Agree,Neutral,Strongly Agree,Strongly Agree,,Master,,Professional Developer,,financial,High,High,Moderate,developer
109,Completed Only Specific,Yes,mage,Agree,Agree,Agree,,Agree,Neutral,Agree,,No Answer,No Answer,No Answer,,No Answer,No Answer,No Answer,,No Answer,No Answer,No Answer,,No Answer,No Answer,No Answer,No Answer,,No Answer,,No Answer,,,No Answer,No Answer,No Answer,No Answer
110,Completed Only General,No,,No Answer,No Answer,No Answer,,Strongly Agree,Strongly Agree,Neutral,,Strongly Agree,Strongly Agree,Agree,,Strongly Agree,Strongly Agree,Agree,,Strongly Agree,Strongly Agree,Agree,,Strongly Agree,Strongly Agree,Strongly Agree,Strongly Agree,,Bachelor,,Professional Developer,,Advertising,Moderate,High,High,operations
111,Partial,No,,No Answer,No Answer,No Answer,,Strongly Agree,No Answer,Strongly Disagree,"I don't really understand the ""I know how to address the different warnings"" one.  Mostly parroting my earlier feedback here, but I don't work for the machines.  The machines work for me.  Slow builds are a massive time sink for sure, but failing the build as a sort of ""tut tut go fix this!"" will quickly get the tool ignored.  Besides, as a project grows in complexity won't there be a tendency for the most recent master build to almost always take longer than all previous (barring some refactor that removes code and tests I suppose)?",Strongly Agree,No Answer,Strongly Agree,"These ""i know how"" questions are weird.  I mean, I understand that in order to fix skipped tests I need to ... turn them on? Is there some context though?  Would my manager know how to do that? probably not.  Honestly in a perfect world I would saying that having any skipped tests should be a build failure.  Fix them or remove them.",No Answer,No Answer,No Answer,,No Answer,No Answer,No Answer,,No Answer,No Answer,No Answer,No Answer,,No Answer,,No Answer,,,No Answer,No Answer,No Answer,No Answer
112,Completed Only General,No,,No Answer,No Answer,No Answer,,Agree,Strongly Disagree,Disagree,"I'm a little curious why the y-axis is measured in seconds. Most CI times will be easily measurable in minutes, and I think developers and managers will have slightly less cognitive overhead with that unit of measure.",Agree,Agree,Strongly Agree,,Neutral,Agree,Neutral,"Is everything in blue text a hyperlink? If not, another color choice would probably be beneficial. Also, a graph showing these dates might be helpful or at least interesting.",Agree,Agree,Agree,"The average time to fix is an interesting value. It might be valuable to have that data superimposed onto this graph, although that might make it too noisy to be helpful.",Neutral,Agree,Agree,Agree,,Self-studied,,Professional Developer,,"DevOps, CI/CD",Moderate,High,High,CI developer/owner/mentor
113,Completed Only General,No,,No Answer,No Answer,No Answer,,Agree,Agree,Neutral,,Neutral,Neutral,Strongly Agree,,Agree,Agree,Strongly Disagree,,Neutral,Agree,Disagree,,Agree,Agree,Agree,Agree,,No Answer,,No Answer,,,No Answer,No Answer,No Answer,No Answer
114,Partial,No,,No Answer,No Answer,No Answer,,No Answer,No Answer,No Answer,,No Answer,No Answer,No Answer,,No Answer,No Answer,No Answer,,No Answer,No Answer,No Answer,,No Answer,No Answer,No Answer,No Answer,,No Answer,,No Answer,,,No Answer,No Answer,No Answer,No Answer
115,Partial,No,,No Answer,No Answer,No Answer,,Strongly Agree,Strongly Agree,Agree,,No Answer,No Answer,No Answer,,No Answer,No Answer,No Answer,,No Answer,No Answer,No Answer,,No Answer,No Answer,No Answer,No Answer,,No Answer,,No Answer,,,No Answer,No Answer,No Answer,No Answer
116,Partial,No,,No Answer,No Answer,No Answer,,No Answer,No Answer,No Answer,,No Answer,No Answer,No Answer,,No Answer,No Answer,No Answer,,No Answer,No Answer,No Answer,,No Answer,No Answer,No Answer,No Answer,,No Answer,,No Answer,,,No Answer,No Answer,No Answer,No Answer
118,Completed Only General,No,,No Answer,No Answer,No Answer,,Strongly Agree,Disagree,Agree,,Disagree,Agree,Agree,"I can't tell from this report whether the skipped tests have since been un-skipped or whether they are still present in the test suite today. I don't know what to do about the former; the latter, I want to know which tests and how long they've been skipped for",Agree,Disagree,Disagree,"Sometimes branches aren't ever meant to be merged back into main (they contain experiments, debugging code, etc and are kept around as useful references). I'd want a clear and convenient way to exclude these branches from this assessment",Agree,Agree,Disagree,,Agree,Agree,Agree,Neutral,,Master,,Professional Developer,,web applications,High,High,Moderate,developer
119,Partial,No,,No Answer,No Answer,No Answer,,No Answer,No Answer,No Answer,,No Answer,No Answer,No Answer,,No Answer,No Answer,No Answer,,No Answer,No Answer,No Answer,,No Answer,No Answer,No Answer,No Answer,,No Answer,,No Answer,,,No Answer,No Answer,No Answer,No Answer